module gitlab.com/gitlab-org/gitlab-runner

go 1.18

require (
	cloud.google.com/go/compute v1.7.0
	cloud.google.com/go/iam v0.3.0
	cloud.google.com/go/storage v1.24.0
	github.com/Azure/azure-sdk-for-go/sdk/storage/azblob v0.4.1
	github.com/BurntSushi/toml v0.3.1
	github.com/bmatcuk/doublestar v1.3.0
	github.com/creack/pty v1.1.17
	github.com/docker/cli v20.10.12+incompatible
	github.com/docker/distribution v2.7.1+incompatible
	github.com/docker/docker v20.10.17+incompatible
	github.com/docker/go-connections v0.4.0
	github.com/docker/go-units v0.4.0
	github.com/docker/machine v0.7.1-0.20170120224952-7b7a141da844
	github.com/fullsailor/pkcs7 v0.0.0-20190404230743-d7302db945fa
	github.com/getsentry/sentry-go v0.11.0
	github.com/golang/mock v1.6.0
	github.com/googleapis/gax-go/v2 v2.4.0
	github.com/gorhill/cronexpr v0.0.0-20160318121724-f0984319b442
	github.com/gorilla/websocket v1.4.2
	github.com/hashicorp/go-version v1.2.1
	github.com/hashicorp/vault/api v1.0.4
	github.com/imdario/mergo v0.3.12
	github.com/jpillora/backoff v1.0.0
	github.com/kardianos/service v1.2.0
	github.com/klauspost/pgzip v1.2.5
	github.com/minio/minio-go/v7 v7.0.28-0.20220610200644-47da873ffd36
	github.com/prometheus/client_golang v1.13.0
	github.com/prometheus/client_model v0.2.0
	github.com/prometheus/common v0.37.0
	github.com/prometheus/procfs v0.8.0
	github.com/saracen/fastzip v0.1.9
	github.com/sirupsen/logrus v1.8.1
	github.com/stretchr/testify v1.8.0
	github.com/tevino/abool v0.0.0-20160628101133-3c25f2fe7cd0
	github.com/urfave/cli v1.22.10
	gitlab.com/gitlab-org/fleeting/fleeting v0.0.0-20221026185329-fbd954429194
	gitlab.com/gitlab-org/fleeting/fleeting/metrics/prometheus v0.0.0-20221026185329-fbd954429194
	gitlab.com/gitlab-org/fleeting/taskscaler v0.0.0-20221107182235-c41f6499e083
	gitlab.com/gitlab-org/fleeting/taskscaler/metrics/prometheus v0.0.0-20221107182235-c41f6499e083
	gitlab.com/gitlab-org/gitlab-terminal v0.0.0-20210104151801-2a71b03b4462
	gitlab.com/gitlab-org/golang-cli-helpers v0.0.0-20210929155855-70bef318ae0a
	gocloud.dev v0.27.0
	golang.org/x/crypto v0.0.0-20220722155217-630584e8d5aa
	golang.org/x/net v0.1.0
	golang.org/x/sync v0.0.0-20220722155255-886fb9371eb4
	golang.org/x/sys v0.1.0
	golang.org/x/text v0.4.0
	google.golang.org/genproto v0.0.0-20221018160656-63c7b68cfc55
	gopkg.in/yaml.v2 v2.4.0
	k8s.io/api v0.24.2
	k8s.io/apimachinery v0.24.2
	k8s.io/client-go v0.24.2
	mvdan.cc/sh/v3 v3.5.1
)

require (
	cloud.google.com/go v0.103.0 // indirect
	github.com/Azure/azure-sdk-for-go/sdk/azcore v1.1.1 // indirect
	github.com/Azure/azure-sdk-for-go/sdk/azidentity v1.0.0 // indirect
	github.com/Azure/azure-sdk-for-go/sdk/internal v1.0.0 // indirect
	github.com/Azure/go-ansiterm v0.0.0-20210617225240-d185dfc1b5a1 // indirect
	github.com/Azure/go-autorest v14.2.0+incompatible // indirect
	github.com/Azure/go-autorest/autorest v0.11.28 // indirect
	github.com/Azure/go-autorest/autorest/adal v0.9.21 // indirect
	github.com/Azure/go-autorest/autorest/date v0.3.0 // indirect
	github.com/Azure/go-autorest/autorest/to v0.4.0 // indirect
	github.com/Azure/go-autorest/logger v0.2.1 // indirect
	github.com/Azure/go-autorest/tracing v0.6.0 // indirect
	github.com/Azure/go-ntlmssp v0.0.0-20211209120228-48547f28849e // indirect
	github.com/AzureAD/microsoft-authentication-library-for-go v0.4.0 // indirect
	github.com/ChrisTrenkamp/goxpath v0.0.0-20210404020558-97928f7e12b6 // indirect
	github.com/Microsoft/go-winio v0.5.2 // indirect
	github.com/PuerkitoBio/purell v1.1.1 // indirect
	github.com/PuerkitoBio/urlesc v0.0.0-20170810143723-de5bf2ad4578 // indirect
	github.com/beorn7/perks v1.0.1 // indirect
	github.com/cespare/xxhash/v2 v2.1.2 // indirect
	github.com/cpuguy83/go-md2man/v2 v2.0.0 // indirect
	github.com/davecgh/go-spew v1.1.1 // indirect
	github.com/denisbrodbeck/machineid v1.0.1 // indirect
	github.com/docker/docker-credential-helpers v0.6.3 // indirect
	github.com/dustin/go-humanize v1.0.0 // indirect
	github.com/elazarl/goproxy v0.0.0-20191011121108-aa519ddbe484 // indirect
	github.com/emicklei/go-restful v2.9.5+incompatible // indirect
	github.com/fatih/color v1.13.0 // indirect
	github.com/go-logr/logr v1.2.3 // indirect
	github.com/go-openapi/jsonpointer v0.19.5 // indirect
	github.com/go-openapi/jsonreference v0.19.6 // indirect
	github.com/go-openapi/swag v0.21.1 // indirect
	github.com/gofrs/uuid v4.2.0+incompatible // indirect
	github.com/gogo/protobuf v1.3.2 // indirect
	github.com/golang-jwt/jwt v3.2.1+incompatible // indirect
	github.com/golang-jwt/jwt/v4 v4.4.2 // indirect
	github.com/golang/groupcache v0.0.0-20210331224755-41bb18bfe9da // indirect
	github.com/golang/protobuf v1.5.2 // indirect
	github.com/golang/snappy v0.0.4 // indirect
	github.com/google/gnostic v0.5.7-v3refs // indirect
	github.com/google/go-cmp v0.5.8 // indirect
	github.com/google/gofuzz v1.2.0 // indirect
	github.com/google/uuid v1.3.0 // indirect
	github.com/google/wire v0.5.0 // indirect
	github.com/googleapis/enterprise-certificate-proxy v0.1.0 // indirect
	github.com/hashicorp/errwrap v1.1.0 // indirect
	github.com/hashicorp/go-cleanhttp v0.5.2 // indirect
	github.com/hashicorp/go-hclog v1.3.1 // indirect
	github.com/hashicorp/go-multierror v1.1.1 // indirect
	github.com/hashicorp/go-plugin v1.4.5 // indirect
	github.com/hashicorp/go-retryablehttp v0.7.1 // indirect
	github.com/hashicorp/go-rootcerts v1.0.2 // indirect
	github.com/hashicorp/go-sockaddr v1.0.2 // indirect
	github.com/hashicorp/go-uuid v1.0.2 // indirect
	github.com/hashicorp/hcl v1.0.0 // indirect
	github.com/hashicorp/vault/sdk v0.1.13 // indirect
	github.com/hashicorp/yamux v0.1.1 // indirect
	github.com/jcmturner/aescts/v2 v2.0.0 // indirect
	github.com/jcmturner/dnsutils/v2 v2.0.0 // indirect
	github.com/jcmturner/gofork v1.0.0 // indirect
	github.com/jcmturner/goidentity/v6 v6.0.1 // indirect
	github.com/jcmturner/gokrb5/v8 v8.4.2 // indirect
	github.com/jcmturner/rpc/v2 v2.0.3 // indirect
	github.com/josharian/intern v1.0.0 // indirect
	github.com/json-iterator/go v1.1.12 // indirect
	github.com/klauspost/compress v1.15.6 // indirect
	github.com/klauspost/cpuid/v2 v2.0.12 // indirect
	github.com/kylelemons/godebug v1.1.0 // indirect
	github.com/mailru/easyjson v0.7.7 // indirect
	github.com/masterzen/simplexml v0.0.0-20190410153822-31eea3082786 // indirect
	github.com/masterzen/winrm v0.0.0-20220917170901-b07f6cb0598d // indirect
	github.com/mattn/go-colorable v0.1.13 // indirect
	github.com/mattn/go-isatty v0.0.16 // indirect
	github.com/matttproud/golang_protobuf_extensions v1.0.2-0.20181231171920-c182affec369 // indirect
	github.com/minio/md5-simd v1.1.2 // indirect
	github.com/minio/sha256-simd v1.0.0 // indirect
	github.com/mitchellh/go-homedir v1.1.0 // indirect
	github.com/mitchellh/go-testing-interface v1.14.1 // indirect
	github.com/mitchellh/mapstructure v1.4.3 // indirect
	github.com/moby/spdystream v0.2.0 // indirect
	github.com/moby/term v0.0.0-20210619224110-3f7ff695adc6 // indirect
	github.com/modern-go/concurrent v0.0.0-20180306012644-bacd9c7ef1dd // indirect
	github.com/modern-go/reflect2 v1.0.2 // indirect
	github.com/morikuni/aec v1.0.0 // indirect
	github.com/munnerz/goautoneg v0.0.0-20191010083416-a7dc8b61c822 // indirect
	github.com/oklog/run v1.1.0 // indirect
	github.com/opencontainers/go-digest v1.0.0 // indirect
	github.com/opencontainers/image-spec v1.0.2 // indirect
	github.com/pierrec/lz4 v2.0.5+incompatible // indirect
	github.com/pkg/browser v0.0.0-20210115035449-ce105d075bb4 // indirect
	github.com/pkg/errors v0.9.1 // indirect
	github.com/pmezard/go-difflib v1.0.0 // indirect
	github.com/rs/xid v1.4.0 // indirect
	github.com/russross/blackfriday/v2 v2.0.1 // indirect
	github.com/ryanuber/go-glob v1.0.0 // indirect
	github.com/saracen/zipextra v0.0.0-20220303013732-0187cb0159ea // indirect
	github.com/shurcooL/sanitized_anchor_name v1.0.0 // indirect
	github.com/spf13/pflag v1.0.5 // indirect
	github.com/stretchr/objx v0.4.0 // indirect
	go.opencensus.io v0.23.0 // indirect
	golang.org/x/oauth2 v0.0.0-20220722155238-128564f6959c // indirect
	golang.org/x/term v0.1.0 // indirect
	golang.org/x/time v0.0.0-20220722155302-e5dcc9cfc0b9 // indirect
	golang.org/x/xerrors v0.0.0-20220609144429-65e65417b02f // indirect
	google.golang.org/api v0.91.0 // indirect
	google.golang.org/appengine v1.6.7 // indirect
	google.golang.org/grpc v1.50.1 // indirect
	google.golang.org/protobuf v1.28.1 // indirect
	gopkg.in/inf.v0 v0.9.1 // indirect
	gopkg.in/ini.v1 v1.66.6 // indirect
	gopkg.in/square/go-jose.v2 v2.5.1 // indirect
	gopkg.in/yaml.v3 v3.0.1 // indirect
	k8s.io/klog/v2 v2.70.0 // indirect
	k8s.io/kube-openapi v0.0.0-20220328201542-3ee0da9b0b42 // indirect
	k8s.io/utils v0.0.0-20220210201930-3a6ce19ff2f9 // indirect
	sigs.k8s.io/json v0.0.0-20211208200746-9f7c6b3444d2 // indirect
	sigs.k8s.io/structured-merge-diff/v4 v4.2.1 // indirect
	sigs.k8s.io/yaml v1.3.0 // indirect
)
